[gd_scene load_steps=2 format=2]

[ext_resource path="res://NavigationArea.gd" type="Script" id=1]

[node name="NavigationArea" type="Position2D"]
script = ExtResource( 1 )
width = 500.0
height = 300.0
